World Development Indicators
…
This study [3] by Krishna Ravikumar is a comparison between India and Chinas development indicators on the same database. The focus was on some economic indicators such as GDP, Trade and import export as well as life expectancy and literacy rate. The conclusion was that China is ahead of India in most indicators. Indias lag from China was between 10 to 25 years depending on the indicator. The stated result was that India is that many years behind China in those indicators. This seemed like a too simplistic way to draw a conclusion and it was based on minimal data. However, the approach taken was novel, the visualization was good, and the overall idea seemed interesting.

This study [4] by itssangeeta tries to explore global wealth inequality and growth over the years. It has some great observations about how far countries have come from 1960. It provides insightful information about countries that have been consistently poor or rich, countries that are emerging, and countries that stand out in terms of accumulation of wealth, average income or wealth distribution. The comparison it attempts to do is interesting, but it sometimes fails to recognize missing data at some points, specially in the earlier years, which sometimes makes the outcome of the graph look a bit contextless. Yet, there were some interesting observations and based on that they went deep into interesting specifics.

From these projects, we picked up how to roughly observe outliers or significant deviations from ordinary and then try to find out more about them. These projects dont go into any further statistical analyses or Machine learning. We wanted to do that but there was something to be gained from these projects about what things can be tried to find interesting trends and how to focus on interesting specifics which we could then analyse further.

Experiment and results

Health

After importing the data, the first domain that we chose to analyse was Health since quality and availability of healthcare in a country is one of the best indicators its overall well-being.

The first thing we checked was the life expectancy of countries in 2018. Then, we checked which countries spent more on healthcare. We measured the spending per capita in USD.

## # A tibble: 264 x 1
##    `Country Name`      
##    <chr>               
##  1 Hong Kong SAR, China
##  2 Japan               
##  3 Macao SAR, China    
##  4 Switzerland         
##  5 Spain               
##  6 Italy               
##  7 Singapore           
##  8 Liechtenstein       
##  9 Channel Islands     
## 10 Iceland             
## # ... with 254 more rows

## # A tibble: 217 x 1
##    `Country Name`       
##    <chr>                
##  1 Tuvalu               
##  2 United States        
##  3 Marshall Islands     
##  4 Sierra Leone         
##  5 Micronesia, Fed. Sts.
##  6 Switzerland          
##  7 Palau                
##  8 Afghanistan          
##  9 Cuba                 
## 10 France               
## # ... with 207 more rows
…
